<svg width="28" height="28" viewBox="0 0 28 28" fill="none" xmlns="http://www.w3.org/2000/svg">
<path d="M14 1.0769V26.9231" stroke="#1F1F1D" stroke-linecap="round"/>
<path d="M2.15234 26.9231L2.15234 1.07694" stroke="#1F1F1D" stroke-linecap="round"/>
<path d="M25.8477 26.9231L25.8477 1.07694" stroke="#1F1F1D" stroke-linecap="round"/>
<rect y="17.2308" width="4.30769" height="4.30769" fill="#1F1F1D"/>
<rect x="23.6914" y="5.38464" width="4.30769" height="4.30769" fill="#1F1F1D"/>
<rect x="11.8477" y="11.8462" width="4.30769" height="4.30769" fill="#1F1F1D"/>
</svg>
